{"version": "1.1.0",
 "packagesDir": ".lake/packages",
 "packages":
 [{"url": "https://github.com/leanprover-community/mathlib4.git",
   "type": "git",
   "subDir": null,
   "scope": "",
   "rev": "56f9c5ec3e4e97e78c743d0e589abd9f5e12d367",
   "name": "mathlib",
   "manifestFile": "lake-manifest.json",
   "inputRev": null,
   "inherited": false,
   "configFile": "lakefile.lean"},
  {"url": "https://github.com/leanprover-community/plausible",
   "type": "git",
   "subDir": null,
   "scope": "leanprover-community",
   "rev": "1622a8693b31523c8f82db48e01b14c74bc1f155",
   "name": "plausible",
   "manifestFile": "lake-manifest.json",
   "inputRev": "v4.16.0-rc1",
   "inherited": true,
   "configFile": "lakefile.toml"},
  {"url": "https://github.com/leanprover-community/LeanSearchClient",
   "type": "git",
   "subDir": null,
   "scope": "leanprover-community",
   "rev": "003ff459cdd85de551f4dcf95cdfeefe10f20531",
   "name": "LeanSearchClient",
   "manifestFile": "lake-manifest.json",
   "inputRev": "main",
   "inherited": true,
   "configFile": "lakefile.toml"},
  {"url": "https://github.com/leanprover-community/import-graph",
   "type": "git",
   "subDir": null,
   "scope": "leanprover-community",
   "rev": "f72319c9686788305a8ab059f3c4d8c724785c83",
   "name": "importGraph",
   "manifestFile": "lake-manifest.json",
   "inputRev": "main",
   "inherited": true,
   "configFile": "lakefile.toml"},
  {"url": "https://github.com/leanprover-community/ProofWidgets4",
   "type": "git",
   "subDir": null,
   "scope": "leanprover-community",
   "rev": "07f60e90998dfd6592688a14cd67bd4e384b77b2",
   "name": "proofwidgets",
   "manifestFile": "lake-manifest.json",
   "inputRev": "v0.0.50",
   "inherited": true,
   "configFile": "lakefile.lean"},
  {"url": "https://github.com/leanprover-community/aesop",
   "type": "git",
   "subDir": null,
   "scope": "leanprover-community",
   "rev": "79402ad9ab4be9a2286701a9880697e2351e4955",
   "name": "aesop",
   "manifestFile": "lake-manifest.json",
   "inputRev": "v4.16.0-rc1",
   "inherited": true,
   "configFile": "lakefile.toml"},
  {"url": "https://github.com/leanprover-community/quote4",
   "type": "git",
   "subDir": null,
   "scope": "leanprover-community",
   "rev": "f0c584bcb14c5adfb53079781eeea75b26ebbd32",
   "name": "Qq",
   "manifestFile": "lake-manifest.json",
   "inputRev": "v4.15.0",
   "inherited": true,
   "configFile": "lakefile.toml"},
  {"url": "https://github.com/leanprover-community/batteries",
   "type": "git",
   "subDir": null,
   "scope": "leanprover-community",
   "rev": "c104265c34eb8181af14e8dbc14c2f034292cb02",
   "name": "batteries",
   "manifestFile": "lake-manifest.json",
   "inputRev": "main",
   "inherited": true,
   "configFile": "lakefile.toml"},
  {"url": "https://github.com/leanprover/lean4-cli",
   "type": "git",
   "subDir": null,
   "scope": "leanprover",
   "rev": "0c8ea32a15a4f74143e4e1e107ba2c412adb90fd",
   "name": "Cli",
   "manifestFile": "lake-manifest.json",
   "inputRev": "main",
   "inherited": true,
   "configFile": "lakefile.toml"}],
 "name": "complex",
 "lakeDir": ".lake"}
